0,{'name'                 :MYNtV 'owner'                :4 'startDate'            :2020-01-09 'endDate'              :2020-02-18 'plannedMembersCount'  :7365 'budget'               :95807 'state'                :COMPLETED 'sportType'            :бокс 'place'                :3 'placeRequirements'    :3 'sponsor'              :5 'sponsorRequirements'  :5 'media'                :3 'mediaRequirements'    :2 'responsible'          :VSCRJcRUut},c4
1,{'name'                 :BzEqc 'owner'                :3 'startDate'            :2020-06-03 'endDate'              :2020-07-17 'plannedMembersCount'  :9430 'budget'               :28682 'state'                :COMPLETED 'sportType'            :каратэ 'place'                :4 'placeRequirements'    :3 'sponsor'              :1 'sponsorRequirements'  :5 'media'                :2 'mediaRequirements'    :2 'responsible'          :gvjKuGgbTh},c4
2,{'name'                 :iLbjT 'owner'                :1 'startDate'            :2020-01-07 'endDate'              :2020-05-12 'plannedMembersCount'  :9635 'budget'               :68461 'state'                :COMPLETED 'sportType'            :легкая атлетика 'place'                :4 'placeRequirements'    :2 'sponsor'              :1 'sponsorRequirements'  :5 'media'                :3 'mediaRequirements'    :3 'responsible'          :qIlvQyFhpQ},c1
3,{'name'                 :nnpZD 'owner'                :2 'startDate'            :2020-03-18 'endDate'              :2020-09-05 'plannedMembersCount'  :6615 'budget'               :35940 'state'                :COMPLETED 'sportType'            :каратэ 'place'                :1 'placeRequirements'    :2 'sponsor'              :4 'sponsorRequirements'  :3 'media'                :3 'mediaRequirements'    :3 'responsible'          :QizSVvKrLD},c1
4,{'name'                 :vMbmz 'owner'                :2 'startDate'            :2020-04-29 'endDate'              :2020-05-08 'plannedMembersCount'  :283 'budget'               :38921 'state'                :COMPLETED 'sportType'            :легкая атлетика 'place'                :4 'placeRequirements'    :3 'sponsor'              :1 'sponsorRequirements'  :5 'media'                :1 'mediaRequirements'    :1 'responsible'          :ntktHemPKZ},c1
5,{'name'                 :Izwbx 'owner'                :3 'startDate'            :2020-09-20 'endDate'              :2020-09-30 'plannedMembersCount'  :975 'budget'               :92344 'state'                :COMPLETED 'sportType'            :бокс 'place'                :1 'placeRequirements'    :4 'sponsor'              :3 'sponsorRequirements'  :2 'media'                :3 'mediaRequirements'    :1 'responsible'          :NPagFzYDsY},c2
6,{'name'                 :cyZGF 'owner'                :4 'startDate'            :2020-04-20 'endDate'              :2020-04-22 'plannedMembersCount'  :5849 'budget'               :40044 'state'                :COMPLETED 'sportType'            :бокс 'place'                :1 'placeRequirements'    :2 'sponsor'              :1 'sponsorRequirements'  :1 'media'                :1 'mediaRequirements'    :2 'responsible'          :ercfHbgUpG},c4
7,{'name'                 :wMVEs 'owner'                :2 'startDate'            :2020-07-30 'endDate'              :2020-08-16 'plannedMembersCount'  :3477 'budget'               :37487 'state'                :COMPLETED 'sportType'            :легкая атлетика 'place'                :1 'placeRequirements'    :3 'sponsor'              :2 'sponsorRequirements'  :5 'media'                :3 'mediaRequirements'    :2 'responsible'          :NUOuWGUJKW},c2
8,{'name'                 :Gtifn 'owner'                :4 'startDate'            :2020-03-07 'endDate'              :2020-02-10 'plannedMembersCount'  :9812 'budget'               :87723 'state'                :COMPLETED 'sportType'            :легкая атлетика 'place'                :3 'placeRequirements'    :1 'sponsor'              :2 'sponsorRequirements'  :2 'media'                :1 'mediaRequirements'    :1 'responsible'          :lhmpwHRFOo},c3
9,{'name'                 :zdBrl 'owner'                :1 'startDate'            :2020-09-12 'endDate'              :2020-06-04 'plannedMembersCount'  :2787 'budget'               :93899 'state'                :COMPLETED 'sportType'            :каратэ 'place'                :3 'placeRequirements'    :4 'sponsor'              :4 'sponsorRequirements'  :1 'media'                :2 'mediaRequirements'    :2 'responsible'          :rtrFHtdHFX},c1
10,{'name'                 :UhZZw 'owner'                :4 'startDate'            :2020-08-08 'endDate'              :2020-08-19 'plannedMembersCount'  :6997 'budget'               :71780 'state'                :COMPLETED 'sportType'            :бокс 'place'                :4 'placeRequirements'    :1 'sponsor'              :5 'sponsorRequirements'  :4 'media'                :1 'mediaRequirements'    :3 'responsible'          :KaUHqBGDVb},c2
11,{'name'                 :nCDxs 'owner'                :1 'startDate'            :2020-05-22 'endDate'              :2020-01-09 'plannedMembersCount'  :7887 'budget'               :14459 'state'                :COMPLETED 'sportType'            :каратэ 'place'                :3 'placeRequirements'    :3 'sponsor'              :3 'sponsorRequirements'  :4 'media'                :3 'mediaRequirements'    :2 'responsible'          :trniYtKLaz},c1
12,{'name'                 :YCHtk 'owner'                :1 'startDate'            :2020-05-18 'endDate'              :2020-03-30 'plannedMembersCount'  :5394 'budget'               :98502 'state'                :COMPLETED 'sportType'            :каратэ 'place'                :3 'placeRequirements'    :2 'sponsor'              :1 'sponsorRequirements'  :5 'media'                :2 'mediaRequirements'    :2 'responsible'          :wqeeUzrHri},c2
13,{'name'                 :UKmNi 'owner'                :4 'startDate'            :2020-01-19 'endDate'              :2020-05-05 'plannedMembersCount'  :4135 'budget'               :80796 'state'                :COMPLETED 'sportType'            :легкая атлетика 'place'                :1 'placeRequirements'    :4 'sponsor'              :2 'sponsorRequirements'  :1 'media'                :3 'mediaRequirements'    :2 'responsible'          :ZkMCJRtFnC},c1
14,{'name'                 :TcxPw 'owner'                :2 'startDate'            :2020-07-31 'endDate'              :2020-07-04 'plannedMembersCount'  :5196 'budget'               :20867 'state'                :COMPLETED 'sportType'            :легкая атлетика 'place'                :3 'placeRequirements'    :3 'sponsor'              :1 'sponsorRequirements'  :2 'media'                :2 'mediaRequirements'    :1 'responsible'          :zwJRPAjiVf},c1
15,{'name'                 :MmwUk 'owner'                :3 'startDate'            :2020-04-27 'endDate'              :2020-07-22 'plannedMembersCount'  :2802 'budget'               :33854 'state'                :COMPLETED 'sportType'            :бокс 'place'                :4 'placeRequirements'    :3 'sponsor'              :1 'sponsorRequirements'  :1 'media'                :3 'mediaRequirements'    :3 'responsible'          :TsbpMPNZPE},c2
16,{'name'                 :eYqPN 'owner'                :2 'startDate'            :2020-01-06 'endDate'              :2020-07-02 'plannedMembersCount'  :9184 'budget'               :12353 'state'                :COMPLETED 'sportType'            :легкая атлетика 'place'                :1 'placeRequirements'    :2 'sponsor'              :2 'sponsorRequirements'  :3 'media'                :2 'mediaRequirements'    :1 'responsible'          :FsoiASaYlh},c2
17,{'name'                 :Qvabj 'owner'                :3 'startDate'            :2020-01-28 'endDate'              :2020-03-12 'plannedMembersCount'  :4366 'budget'               :95097 'state'                :COMPLETED 'sportType'            :каратэ 'place'                :1 'placeRequirements'    :3 'sponsor'              :2 'sponsorRequirements'  :2 'media'                :1 'mediaRequirements'    :2 'responsible'          :QiiwuJzVFI},c4
18,{'name'                 :tFhaL 'owner'                :3 'startDate'            :2020-07-16 'endDate'              :2020-02-07 'plannedMembersCount'  :368 'budget'               :60870 'state'                :COMPLETED 'sportType'            :легкая атлетика 'place'                :4 'placeRequirements'    :3 'sponsor'              :5 'sponsorRequirements'  :4 'media'                :1 'mediaRequirements'    :1 'responsible'          :hJhloJVihh},c4
19,{'name'                 :FDsav 'owner'                :1 'startDate'            :2020-07-29 'endDate'              :2020-01-24 'plannedMembersCount'  :3743 'budget'               :14869 'state'                :COMPLETED 'sportType'            :легкая атлетика 'place'                :4 'placeRequirements'    :3 'sponsor'              :4 'sponsorRequirements'  :2 'media'                :3 'mediaRequirements'    :2 'responsible'          :wqrbmPwxPk},c4
20,{'name'                 :lfDVn 'owner'                :4 'startDate'            :2020-06-22 'endDate'              :2020-02-05 'plannedMembersCount'  :9791 'budget'               :29569 'state'                :COMPLETED 'sportType'            :бокс 'place'                :2 'placeRequirements'    :4 'sponsor'              :5 'sponsorRequirements'  :3 'media'                :2 'mediaRequirements'    :3 'responsible'          :DbiXjQnKnH},c2
21,{'name'                 :fmhNR 'owner'                :3 'startDate'            :2020-01-03 'endDate'              :2020-09-29 'plannedMembersCount'  :2762 'budget'               :98954 'state'                :COMPLETED 'sportType'            :каратэ 'place'                :3 'placeRequirements'    :3 'sponsor'              :3 'sponsorRequirements'  :3 'media'                :1 'mediaRequirements'    :1 'responsible'          :vgHkEtxxQf},c4
22,{'name'                 :GssVt 'owner'                :1 'startDate'            :2020-06-03 'endDate'              :2020-03-25 'plannedMembersCount'  :3363 'budget'               :49856 'state'                :COMPLETED 'sportType'            :бокс 'place'                :3 'placeRequirements'    :2 'sponsor'              :2 'sponsorRequirements'  :2 'media'                :2 'mediaRequirements'    :3 'responsible'          :XlxdEGAbuv},c3
23,{'name'                 :Lkvuc 'owner'                :3 'startDate'            :2020-08-27 'endDate'              :2020-08-26 'plannedMembersCount'  :620 'budget'               :39903 'state'                :COMPLETED 'sportType'            :легкая атлетика 'place'                :3 'placeRequirements'    :2 'sponsor'              :4 'sponsorRequirements'  :3 'media'                :3 'mediaRequirements'    :3 'responsible'          :KSJBQQinjx},c4
24,{'name'                 :UMehv 'owner'                :2 'startDate'            :2020-05-18 'endDate'              :2020-06-13 'plannedMembersCount'  :8757 'budget'               :20690 'state'                :COMPLETED 'sportType'            :легкая атлетика 'place'                :4 'placeRequirements'    :2 'sponsor'              :3 'sponsorRequirements'  :2 'media'                :3 'mediaRequirements'    :2 'responsible'          :dVKRcyzJJv},c4
25,{'name'                 :lTrAN 'owner'                :3 'startDate'            :2020-04-06 'endDate'              :2020-05-22 'plannedMembersCount'  :2597 'budget'               :60097 'state'                :COMPLETED 'sportType'            :легкая атлетика 'place'                :1 'placeRequirements'    :2 'sponsor'              :1 'sponsorRequirements'  :5 'media'                :3 'mediaRequirements'    :1 'responsible'          :ZkzCptTaRt},c3
26,{'name'                 :RKXyK 'owner'                :3 'startDate'            :2020-09-17 'endDate'              :2020-06-04 'plannedMembersCount'  :5329 'budget'               :86700 'state'                :COMPLETED 'sportType'            :легкая атлетика 'place'                :2 'placeRequirements'    :1 'sponsor'              :4 'sponsorRequirements'  :1 'media'                :1 'mediaRequirements'    :1 'responsible'          :oLowOyYcyc},c4
27,{'name'                 :HNdix 'owner'                :2 'startDate'            :2020-07-17 'endDate'              :2020-05-31 'plannedMembersCount'  :8940 'budget'               :21801 'state'                :COMPLETED 'sportType'            :легкая атлетика 'place'                :2 'placeRequirements'    :2 'sponsor'              :5 'sponsorRequirements'  :5 'media'                :2 'mediaRequirements'    :2 'responsible'          :wIrfZRnxRa},c1
28,{'name'                 :KuVWv 'owner'                :3 'startDate'            :2020-07-26 'endDate'              :2020-09-07 'plannedMembersCount'  :2889 'budget'               :71499 'state'                :COMPLETED 'sportType'            :каратэ 'place'                :1 'placeRequirements'    :1 'sponsor'              :2 'sponsorRequirements'  :5 'media'                :1 'mediaRequirements'    :3 'responsible'          :dtSRttzDLE},c4
29,{'name'                 :eSffo 'owner'                :4 'startDate'            :2020-07-04 'endDate'              :2020-06-10 'plannedMembersCount'  :5593 'budget'               :37473 'state'                :COMPLETED 'sportType'            :каратэ 'place'                :1 'placeRequirements'    :2 'sponsor'              :4 'sponsorRequirements'  :2 'media'                :1 'mediaRequirements'    :1 'responsible'          :gzDferYXYT},c1
30,{'name'                 :HRmVQ 'owner'                :3 'startDate'            :2020-06-03 'endDate'              :2020-07-28 'plannedMembersCount'  :3245 'budget'               :78830 'state'                :COMPLETED 'sportType'            :бокс 'place'                :2 'placeRequirements'    :4 'sponsor'              :3 'sponsorRequirements'  :2 'media'                :1 'mediaRequirements'    :2 'responsible'          :aWIMLOLhHz},c1
31,{'name'                 :rnhYG 'owner'                :4 'startDate'            :2020-08-28 'endDate'              :2020-03-30 'plannedMembersCount'  :1420 'budget'               :18251 'state'                :COMPLETED 'sportType'            :легкая атлетика 'place'                :3 'placeRequirements'    :2 'sponsor'              :1 'sponsorRequirements'  :4 'media'                :3 'mediaRequirements'    :2 'responsible'          :CukMLkiSZn},c1
32,{'name'                 :fVGCO 'owner'                :2 'startDate'            :2020-08-01 'endDate'              :2020-09-21 'plannedMembersCount'  :7439 'budget'               :49078 'state'                :COMPLETED 'sportType'            :бокс 'place'                :2 'placeRequirements'    :4 'sponsor'              :5 'sponsorRequirements'  :5 'media'                :1 'mediaRequirements'    :2 'responsible'          :YErSerBLXZ},c3
33,{'name'                 :wXpEp 'owner'                :3 'startDate'            :2020-04-26 'endDate'              :2020-07-16 'plannedMembersCount'  :4229 'budget'               :26977 'state'                :COMPLETED 'sportType'            :каратэ 'place'                :1 'placeRequirements'    :2 'sponsor'              :1 'sponsorRequirements'  :2 'media'                :2 'mediaRequirements'    :1 'responsible'          :GVFldPpUui},c3
34,{'name'                 :aIIGW 'owner'                :4 'startDate'            :2020-01-02 'endDate'              :2020-04-01 'plannedMembersCount'  :740 'budget'               :88999 'state'                :COMPLETED 'sportType'            :каратэ 'place'                :3 'placeRequirements'    :3 'sponsor'              :4 'sponsorRequirements'  :4 'media'                :1 'mediaRequirements'    :3 'responsible'          :EWpZSOyXiV},c1
35,{'name'                 :mFTfw 'owner'                :2 'startDate'            :2020-06-04 'endDate'              :2020-07-11 'plannedMembersCount'  :3946 'budget'               :56722 'state'                :COMPLETED 'sportType'            :бокс 'place'                :1 'placeRequirements'    :3 'sponsor'              :5 'sponsorRequirements'  :1 'media'                :2 'mediaRequirements'    :3 'responsible'          :nKVuJkcrQf},c4
36,{'name'                 :JBeXX 'owner'                :4 'startDate'            :2020-09-18 'endDate'              :2020-05-29 'plannedMembersCount'  :3564 'budget'               :78668 'state'                :COMPLETED 'sportType'            :каратэ 'place'                :2 'placeRequirements'    :2 'sponsor'              :3 'sponsorRequirements'  :2 'media'                :2 'mediaRequirements'    :1 'responsible'          :JsqkSMJQNC},c4
37,{'name'                 :Cclmj 'owner'                :1 'startDate'            :2020-06-28 'endDate'              :2020-06-27 'plannedMembersCount'  :6536 'budget'               :96736 'state'                :COMPLETED 'sportType'            :каратэ 'place'                :1 'placeRequirements'    :3 'sponsor'              :2 'sponsorRequirements'  :3 'media'                :2 'mediaRequirements'    :3 'responsible'          :RtPGyJgqQy},c4
38,{'name'                 :JEKFb 'owner'                :4 'startDate'            :2020-09-01 'endDate'              :2020-05-26 'plannedMembersCount'  :6755 'budget'               :31143 'state'                :COMPLETED 'sportType'            :бокс 'place'                :2 'placeRequirements'    :4 'sponsor'              :1 'sponsorRequirements'  :3 'media'                :3 'mediaRequirements'    :1 'responsible'          :tMcvmcAsll},c1
39,{'name'                 :PAMSP 'owner'                :1 'startDate'            :2020-09-07 'endDate'              :2020-05-20 'plannedMembersCount'  :3537 'budget'               :69001 'state'                :COMPLETED 'sportType'            :каратэ 'place'                :2 'placeRequirements'    :3 'sponsor'              :5 'sponsorRequirements'  :1 'media'                :1 'mediaRequirements'    :1 'responsible'          :RiCEuYxJwC},c4
40,{'name'                 :atJeS 'owner'                :3 'startDate'            :2020-01-11 'endDate'              :2020-08-09 'plannedMembersCount'  :6956 'budget'               :28746 'state'                :COMPLETED 'sportType'            :бокс 'place'                :1 'placeRequirements'    :4 'sponsor'              :4 'sponsorRequirements'  :2 'media'                :1 'mediaRequirements'    :3 'responsible'          :FeMauOSuKi},c1
41,{'name'                 :EMfvy 'owner'                :4 'startDate'            :2020-07-01 'endDate'              :2020-06-16 'plannedMembersCount'  :2719 'budget'               :28141 'state'                :COMPLETED 'sportType'            :каратэ 'place'                :1 'placeRequirements'    :2 'sponsor'              :5 'sponsorRequirements'  :1 'media'                :1 'mediaRequirements'    :1 'responsible'          :KkQtSvHLvM},c3
42,{'name'                 :akfpK 'owner'                :2 'startDate'            :2020-03-17 'endDate'              :2020-09-14 'plannedMembersCount'  :4760 'budget'               :42356 'state'                :COMPLETED 'sportType'            :бокс 'place'                :2 'placeRequirements'    :2 'sponsor'              :4 'sponsorRequirements'  :1 'media'                :1 'mediaRequirements'    :2 'responsible'          :hxxqQmHlBa},c3
43,{'name'                 :jSxEH 'owner'                :3 'startDate'            :2020-01-06 'endDate'              :2020-03-30 'plannedMembersCount'  :1570 'budget'               :34058 'state'                :COMPLETED 'sportType'            :легкая атлетика 'place'                :2 'placeRequirements'    :2 'sponsor'              :1 'sponsorRequirements'  :4 'media'                :2 'mediaRequirements'    :3 'responsible'          :brXjpmweNS},c4
44,{'name'                 :lczSa 'owner'                :4 'startDate'            :2020-08-29 'endDate'              :2020-06-05 'plannedMembersCount'  :5847 'budget'               :18897 'state'                :COMPLETED 'sportType'            :бокс 'place'                :3 'placeRequirements'    :3 'sponsor'              :2 'sponsorRequirements'  :4 'media'                :2 'mediaRequirements'    :2 'responsible'          :cRYTiCCGTS},c3
45,{'name'                 :aamdS 'owner'                :2 'startDate'            :2020-02-08 'endDate'              :2020-07-19 'plannedMembersCount'  :1716 'budget'               :97403 'state'                :COMPLETED 'sportType'            :бокс 'place'                :3 'placeRequirements'    :4 'sponsor'              :3 'sponsorRequirements'  :2 'media'                :1 'mediaRequirements'    :1 'responsible'          :NYjJBxrgAH},c4
46,{'name'                 :WqTcq 'owner'                :2 'startDate'            :2020-06-03 'endDate'              :2020-07-12 'plannedMembersCount'  :1085 'budget'               :89672 'state'                :COMPLETED 'sportType'            :каратэ 'place'                :4 'placeRequirements'    :4 'sponsor'              :1 'sponsorRequirements'  :4 'media'                :3 'mediaRequirements'    :2 'responsible'          :TVzDjdSzpK},c4
47,{'name'                 :pSrIt 'owner'                :1 'startDate'            :2020-09-30 'endDate'              :2020-01-06 'plannedMembersCount'  :5167 'budget'               :92875 'state'                :COMPLETED 'sportType'            :каратэ 'place'                :2 'placeRequirements'    :2 'sponsor'              :4 'sponsorRequirements'  :5 'media'                :3 'mediaRequirements'    :2 'responsible'          :wVkWgNEnfl},c4
48,{'name'                 :JhpNk 'owner'                :1 'startDate'            :2020-07-25 'endDate'              :2020-06-20 'plannedMembersCount'  :5273 'budget'               :84283 'state'                :COMPLETED 'sportType'            :каратэ 'place'                :2 'placeRequirements'    :4 'sponsor'              :5 'sponsorRequirements'  :1 'media'                :3 'mediaRequirements'    :1 'responsible'          :kTqIXNeNjg},c2
49,{'name'                 :yTfTm 'owner'                :4 'startDate'            :2020-06-25 'endDate'              :2020-07-03 'plannedMembersCount'  :6895 'budget'               :55513 'state'                :COMPLETED 'sportType'            :каратэ 'place'                :1 'placeRequirements'    :2 'sponsor'              :5 'sponsorRequirements'  :4 'media'                :3 'mediaRequirements'    :3 'responsible'          :kkBmSIyODa},c2
50,{'name'                 :cvPop 'owner'                :3 'startDate'            :2020-05-20 'endDate'              :2020-02-21 'plannedMembersCount'  :4873 'budget'               :86615 'state'                :COMPLETED 'sportType'            :бокс 'place'                :4 'placeRequirements'    :4 'sponsor'              :4 'sponsorRequirements'  :1 'media'                :1 'mediaRequirements'    :1 'responsible'          :iHTvhNnngz},c4
51,{'name'                 :HuOzV 'owner'                :2 'startDate'            :2020-04-23 'endDate'              :2020-02-07 'plannedMembersCount'  :5654 'budget'               :73129 'state'                :COMPLETED 'sportType'            :бокс 'place'                :4 'placeRequirements'    :3 'sponsor'              :1 'sponsorRequirements'  :5 'media'                :3 'mediaRequirements'    :2 'responsible'          :XfGYcsMuvM},c1
52,{'name'                 :vuhUt 'owner'                :1 'startDate'            :2020-03-26 'endDate'              :2020-05-28 'plannedMembersCount'  :6401 'budget'               :15172 'state'                :COMPLETED 'sportType'            :легкая атлетика 'place'                :3 'placeRequirements'    :1 'sponsor'              :1 'sponsorRequirements'  :3 'media'                :1 'mediaRequirements'    :1 'responsible'          :TDBDTgyqBW},c4
53,{'name'                 :qeTwn 'owner'                :1 'startDate'            :2020-06-17 'endDate'              :2020-01-27 'plannedMembersCount'  :4575 'budget'               :52817 'state'                :COMPLETED 'sportType'            :каратэ 'place'                :2 'placeRequirements'    :2 'sponsor'              :4 'sponsorRequirements'  :5 'media'                :1 'mediaRequirements'    :2 'responsible'          :IxCpyTnQiO},c2
54,{'name'                 :xrGzx 'owner'                :1 'startDate'            :2020-01-01 'endDate'              :2020-04-07 'plannedMembersCount'  :9840 'budget'               :26883 'state'                :COMPLETED 'sportType'            :бокс 'place'                :3 'placeRequirements'    :1 'sponsor'              :2 'sponsorRequirements'  :2 'media'                :1 'mediaRequirements'    :1 'responsible'          :fFwrkQegyN},c4
55,{'name'                 :shGus 'owner'                :2 'startDate'            :2020-01-16 'endDate'              :2020-01-07 'plannedMembersCount'  :9322 'budget'               :69492 'state'                :COMPLETED 'sportType'            :легкая атлетика 'place'                :4 'placeRequirements'    :2 'sponsor'              :1 'sponsorRequirements'  :5 'media'                :1 'mediaRequirements'    :1 'responsible'          :Kimgymkqeo},c1
56,{'name'                 :iIXrq 'owner'                :3 'startDate'            :2020-09-07 'endDate'              :2020-02-04 'plannedMembersCount'  :4311 'budget'               :27315 'state'                :COMPLETED 'sportType'            :бокс 'place'                :3 'placeRequirements'    :2 'sponsor'              :5 'sponsorRequirements'  :3 'media'                :1 'mediaRequirements'    :2 'responsible'          :dPZNUQyFGK},c1
57,{'name'                 :jKskI 'owner'                :4 'startDate'            :2020-06-25 'endDate'              :2020-05-29 'plannedMembersCount'  :2094 'budget'               :20439 'state'                :COMPLETED 'sportType'            :бокс 'place'                :1 'placeRequirements'    :1 'sponsor'              :5 'sponsorRequirements'  :4 'media'                :2 'mediaRequirements'    :3 'responsible'          :uDAqbbvGem},c2
58,{'name'                 :ZTrRM 'owner'                :1 'startDate'            :2020-03-03 'endDate'              :2020-05-16 'plannedMembersCount'  :4451 'budget'               :10176 'state'                :COMPLETED 'sportType'            :бокс 'place'                :3 'placeRequirements'    :3 'sponsor'              :3 'sponsorRequirements'  :1 'media'                :2 'mediaRequirements'    :2 'responsible'          :CpfyhoMbBP},c4
59,{'name'                 :mimOu 'owner'                :1 'startDate'            :2020-04-06 'endDate'              :2020-04-15 'plannedMembersCount'  :3922 'budget'               :56969 'state'                :COMPLETED 'sportType'            :каратэ 'place'                :3 'placeRequirements'    :1 'sponsor'              :3 'sponsorRequirements'  :3 'media'                :2 'mediaRequirements'    :1 'responsible'          :COQaBaNxzj},c4
60,{'name'                 :WNOrS 'owner'                :4 'startDate'            :2020-04-04 'endDate'              :2020-05-09 'plannedMembersCount'  :5689 'budget'               :69310 'state'                :COMPLETED 'sportType'            :каратэ 'place'                :4 'placeRequirements'    :3 'sponsor'              :1 'sponsorRequirements'  :5 'media'                :3 'mediaRequirements'    :3 'responsible'          :IquENGKeBr},c1
61,{'name'                 :jdRoo 'owner'                :2 'startDate'            :2020-03-29 'endDate'              :2020-08-13 'plannedMembersCount'  :5707 'budget'               :53273 'state'                :COMPLETED 'sportType'            :легкая атлетика 'place'                :1 'placeRequirements'    :4 'sponsor'              :5 'sponsorRequirements'  :5 'media'                :1 'mediaRequirements'    :1 'responsible'          :dIlEtKfuOB},c2
62,{'name'                 :YNINs 'owner'                :1 'startDate'            :2020-06-12 'endDate'              :2020-07-04 'plannedMembersCount'  :5125 'budget'               :38336 'state'                :COMPLETED 'sportType'            :каратэ 'place'                :4 'placeRequirements'    :1 'sponsor'              :2 'sponsorRequirements'  :4 'media'                :2 'mediaRequirements'    :2 'responsible'          :SxNcJXTzjt},c2
63,{'name'                 :BhZdn 'owner'                :3 'startDate'            :2020-08-01 'endDate'              :2020-06-22 'plannedMembersCount'  :9844 'budget'               :14597 'state'                :COMPLETED 'sportType'            :каратэ 'place'                :1 'placeRequirements'    :1 'sponsor'              :1 'sponsorRequirements'  :1 'media'                :2 'mediaRequirements'    :1 'responsible'          :QVjcJrUcda},c3
64,{'name'                 :YSaFq 'owner'                :1 'startDate'            :2020-05-31 'endDate'              :2020-07-03 'plannedMembersCount'  :8692 'budget'               :30745 'state'                :COMPLETED 'sportType'            :каратэ 'place'                :4 'placeRequirements'    :1 'sponsor'              :5 'sponsorRequirements'  :1 'media'                :1 'mediaRequirements'    :3 'responsible'          :cyTUJpURQq},c3
65,{'name'                 :lVQnE 'owner'                :3 'startDate'            :2020-08-28 'endDate'              :2020-09-13 'plannedMembersCount'  :4916 'budget'               :49461 'state'                :COMPLETED 'sportType'            :легкая атлетика 'place'                :4 'placeRequirements'    :1 'sponsor'              :3 'sponsorRequirements'  :3 'media'                :3 'mediaRequirements'    :3 'responsible'          :nwbivBkcuO},c3
66,{'name'                 :AyRiA 'owner'                :3 'startDate'            :2020-09-18 'endDate'              :2020-03-09 'plannedMembersCount'  :7629 'budget'               :92373 'state'                :COMPLETED 'sportType'            :бокс 'place'                :4 'placeRequirements'    :1 'sponsor'              :1 'sponsorRequirements'  :4 'media'                :3 'mediaRequirements'    :2 'responsible'          :dDizytaAhy},c4
67,{'name'                 :UbYhW 'owner'                :4 'startDate'            :2020-05-20 'endDate'              :2020-02-19 'plannedMembersCount'  :6698 'budget'               :54790 'state'                :COMPLETED 'sportType'            :легкая атлетика 'place'                :2 'placeRequirements'    :4 'sponsor'              :3 'sponsorRequirements'  :2 'media'                :3 'mediaRequirements'    :3 'responsible'          :zhDQhHFQBz},c1
68,{'name'                 :MGICu 'owner'                :3 'startDate'            :2020-07-28 'endDate'              :2020-02-25 'plannedMembersCount'  :4231 'budget'               :79529 'state'                :COMPLETED 'sportType'            :бокс 'place'                :1 'placeRequirements'    :4 'sponsor'              :4 'sponsorRequirements'  :4 'media'                :2 'mediaRequirements'    :2 'responsible'          :rVdYkzdZSw},c3
69,{'name'                 :KlfOB 'owner'                :1 'startDate'            :2020-05-04 'endDate'              :2020-03-07 'plannedMembersCount'  :7322 'budget'               :78709 'state'                :COMPLETED 'sportType'            :бокс 'place'                :4 'placeRequirements'    :1 'sponsor'              :5 'sponsorRequirements'  :1 'media'                :2 'mediaRequirements'    :1 'responsible'          :TvfPuIJUQS},c3
